Name,Division,Sex,Equipment,Event,BodyweightKg,WeightClassKg,Squat1Kg,Squat2Kg,Squat3Kg,Best3SquatKg,Bench1Kg,Bench2Kg,Bench3Kg,Best3BenchKg,Deadlift1Kg,Deadlift2Kg,Deadlift3Kg,Best3DeadliftKg,TotalKg,AgeClass,Place
Tom Hitchcock-Wyatt,M-C-Open,M,Raw,SBD,57.8,59,150,155,160,160,75,80,83,83,150,155.5,160,160,403,0-22.5,1
Daniel McGauley,M-C-Open,M,Raw,SBD,57.2,59,82.5,92.5,-100,92.5,67.5,72.5,77.5,77.5,90,100,-107.5,100,270,23.5-38.5,2
Jamie Jones,M-C-Open,M,Raw,SBD,65.3,66,160,170,180,180,100,110,-115,110,210,220,230,230,520,23.5-38.5,1
Sean Maloney,M-C-Open,M,Raw,SBD,65.4,66,140,-147.5,-147.5,140,90,95,-100,95,180,,,180,415,23.5-38.5,2
Dale Northcott,M-C-Open,M,Raw,SBD,63.6,66,30,35,40,40,42.5,47.5,50,50,65,77.5,82.5,82.5,172.5,23.5-38.5,3
Ben Sugarman,M-C-Open,M,Raw,SBD,73.4,74,190,200,-210,200,85,92.5,97.5,97.5,230,-240,250,250,547.5,0-17.5,1
Chris Creedy,M-C-Open,M,Raw,SBD,70.8,74,137.5,147.5,152.5,152.5,95,100,102.5,102.5,155,165,170,170,425,39.5-48.5,2
Steve Walker,M-C-Open,M,Raw,SBD,73.9,74,110,,,110,110,,,110,110,,,110,330,59.5-68.5,3
Jonathan Abery,M-C-Open,M,Raw,SBD,66.2,74,150,-160,-160,150,-80,-85,-85,,185,190,-195,190,,23.5-38.5,DQ
Tom Rowell,M-C-Open,M,Raw,SBD,82.3,83,200,220,227.5,227.5,125,132.5,137.5,137.5,240,247.5,270,270,635,23.5-38.5,1
Callum Goddard,M-C-Open,M,Raw,SBD,81.8,83,207.5,215,225,225,142.5,150,155,155,217.5,230,-240,230,610,0-22.5,2
Michael Hall,M-C-Open,M,Raw,SBD,82.4,83,200,-212.5,215,215,122.5,130,-132.5,130,220,235,240,240,585,23.5-38.5,3
Ricardo Lucas,M-C-Open,M,Raw,SBD,81.6,83,200,210,217.5,217.5,120,130,135,135,205,222.5,227.5,227.5,580,23.5-38.5,4
Grant Sugarman,M-C-Open,M,Raw,SBD,80.8,83,170,-182.5,185,185,115,120,125,125,230,250,-252.5,250,560,49.5-58.5,5
Mathew Lines,M-C-Open,M,Raw,SBD,81.9,83,175,185,-192.5,185,110,115,-120,115,215,230,240,240,540,23.5-38.5,6
Toby Sharp,M-C-Open,M,Raw,SBD,81.6,83,160,170,-180,170,90,100,-107.5,100,180,200,-215,200,470,39.5-48.5,7
Jon Culmer,M-C-Open,M,Raw,SBD,81.8,83,130,145,155,155,102.5,112.5,-117.5,112.5,172.5,185,192.5,192.5,460,0-22.5,8
Paul Todd,M-C-Open,M,Raw,SBD,81.2,83,135,145,155,155,110,117.5,120,120,160,175,180,180,455,39.5-48.5,9
Neil Butler,M-C-Open,M,Raw,SBD,80.5,83,145,150,155,155,95,100,102.5,102.5,185,192.5,-200,192.5,450,49.5-58.5,10
Andy Wilson,M-C-Open,M,Raw,SBD,80.6,83,130,140,-150,140,100,107.5,110,110,170,180,190,190,440,23.5-38.5,11
Saleem Painchun,M-C-Open,M,Raw,SBD,77,83,140,150,-155,150,82.5,-90,90,90,150,160,-172.5,160,400,23.5-38.5,12
Oliver Butler,M-C-G,M,Raw,SBD,83.4,93,-185,185,-200,185,115,,,115,,,,,,23.5-38.5,DQ
Mark Golding,M-C-Open,M,Raw,SBD,90.8,93,220,230,245,245,145,155,165,165,220,240,260,260,670,23.5-38.5,1
Andy Champ,M-C-Open,M,Raw,SBD,90.5,93,200,210,215,215,150,160,165.5,165.5,240,255,265,265,645.5,23.5-38.5,2
James Blundell,M-C-Open,M,Raw,SBD,92.9,93,200,215,225,225,140,150,160,160,240,250,-260,250,635,23.5-38.5,3
Jason Berrington,M-C-Open,M,Raw,SBD,92.4,93,200,-207.5,207.5,207.5,140,145,-150,145,235,247.5,255,255,607.5,23.5-38.5,4
Danny Willgoss,M-C-Open,M,Raw,SBD,91.8,93,200,215,-225,215,125,130,135,135,230,-250,-250,230,580,23.5-38.5,5
Harvey Armitage,M-C-Open,M,Raw,SBD,88.6,93,195,205,215,215,125,132.5,137.5,137.5,190,210,222.5,222.5,575,23.5-38.5,6
Joshua Freem,M-C-Open,M,Raw,SBD,90.6,93,175,190,200,200,110,120,125,125,220,240,-250,240,565,23.5-38.5,7
Josh Nicklin,M-C-Open,M,Raw,SBD,87.7,93,160,162.5,185,185,95,105,-110,105,195,210,217.5,217.5,507.5,23.5-38.5,8
James Clarke #1,M-C-Open,M,Raw,SBD,91.5,93,165,170,180,180,95,105,-115,105,200,210,,210,495,23.5-38.5,9
Thomas Watts,M-C-Open,M,Raw,SBD,83.3,93,150,155,-160,155,122.5,132.5,-142.5,132.5,175,-187.5,,175,462.5,23.5-38.5,10
Ripu Syed Ali,M-C-Open,M,Raw,SBD,87,93,110,122.5,127.5,127.5,85,-95,95,95,145,157.5,165,165,387.5,23.5-38.5,11
Leon Holmes,M-C-Open,M,Raw,SBD,92.2,93,225,235,-240,235,-145,-145,-145,,,,,,,0-22.5,DQ
Frankie Parke,M-C-Open,M,Raw,SBD,104.4,105,260,-270,-270,260,147.5,155,-160,155,250,-265,,250,665,0-22.5,1
Stuart Alexander,M-C-Open,M,Raw,SBD,102.2,105,220,230,240,240,140,147.5,150,150,240,250,-260,250,640,39.5-48.5,2
Jack Pryse-Davies,M-C-Open,M,Raw,SBD,99.3,105,185,195,205,205,140,150,-152.5,150,210,222.5,237.5,237.5,592.5,0-22.5,3
Kit Kauma,M-C-Open,M,Raw,SBD,103.9,105,190,200,-207.5,200,130,137.5,145,145,225,237.5,,237.5,582.5,0-22.5,4
Thomas Cornwell,M-C-Open,M,Raw,SBD,100.6,105,125,130,140,140,82.5,90,-100,90,142.5,152.5,,152.5,382.5,0-22.5,5
Daniel Lindsell,M-C-Open,M,Raw,SBD,118.5,120,240,255,262.5,262.5,190,-200,200,200,275,290,-300,290,752.5,23.5-38.5,1
Jared Holmes,M-C-Open,M,Raw,SBD,113.8,120,220,-240,240,240,160,180,,180,240,280,,280,700,23.5-38.5,2
James Mills,M-C-Open,M,Raw,SBD,118,120,230,240,250,250,160,165,170,170,245,255,260,260,680,23.5-38.5,3
Ben Leyland,M-C-Open,M,Raw,SBD,113,120,210,225,235,235,130,135,140,140,270,290,300,300,675,23.5-38.5,4
Chris Hartwig,M-C-Open,M,Raw,SBD,116.9,120,230,,,230,160,,,160,260,280,,280,670,23.5-38.5,5
Mark Davies,M-C-Open,M,Raw,SBD,117.9,120,220,240,250,250,120,135,137.5,137.5,250,260,265,265,652.5,23.5-38.5,6
Tom Weavers,M-C-Open,M,Raw,SBD,118.5,120,190,200,210,210,140,150,155,155,230,240,-250,240,605,23.5-38.5,7
Richard Griffiths,M-C-Open,M,Raw,SBD,111.7,120,195,205,215,215,135,-140,,135,235,242.5,-250,242.5,592.5,23.5-38.5,8
Fred Vassie,M-C-Open,M,Raw,SBD,113.5,120,200,-210,210,210,135,-142.5,-142.5,135,-230,230,,230,575,23.5-38.5,9
Michael Dennis,M-C-Open,M,Raw,SBD,119.1,120,185,205,-220,205,-125,125,,125,200,210,-220,210,540,23.5-38.5,10
Baruch Sekenofsky,M-C-G,M,Raw,SBD,118.2,120,290,310,315,315,185,195,-202.5,195,300,315,325,325,835,0-22.5,G
