Division,WeightClassKg,Place,Name,Team,BodyweightKg,Best3SquatKg,Best3BenchKg,Best3DeadliftKg,TotalKg,Equipment,Event,Sex
Boys,55.79,1,Nick Provost,Conroe The Woodlands,51.89,102.06,54.43,124.74,281.23,Single-ply,SBD,M
Boys,51.71,2,Jack Lockhart,Conroe The Woodlands,49.31,74.84,52.16,99.79,226.8,Single-ply,SBD,M
Boys,51.71,3,Marc Vassel,Pasadena Rayburn,39.92,61.23,43.09,88.45,192.78,Single-ply,SBD,M
Boys,55.79,1,Taylor Riley,Magnolia,55.47,149.69,95.25,167.83,412.77,Single-ply,SBD,M
Boys,59.87,2,AJ Ono,Conroe The Woodlands,56.02,136.08,88.45,158.76,383.29,Single-ply,SBD,M
Boys,55.79,3,Crisoforo Ayala,Pasadena Rayburn,55.29,115.67,77.11,142.88,335.66,Single-ply,SBD,M
Boys,67.13,1,Gavin Webster,Conroe The Woodlands,60.06,190.51,108.86,188.24,487.61,Single-ply,SBD,M
Boys,59.87,2,Nigel Moyer,Conroe The Woodlands,59.74,151.95,97.52,156.49,405.97,Single-ply,SBD,M
Boys,59.87,3,Kenny Bounds,Montgomery,57.52,147.42,90.72,142.88,381.02,Single-ply,SBD,M
Boys,59.87,4,Randol Manjarrez,Pasadena Rayburn,57.06,92.99,56.7,131.54,281.23,Single-ply,SBD,M
Boys,59.87,DQ,Nicholas Ortega,Katy Taylor,59.65,,,,,Single-ply,SBD,M
Boys,67.13,1,Grayson Brown,Conroe The Woodlands,66.95,233.6,131.54,210.92,576.06,Single-ply,SBD,M
Boys,67.13,2,Tuciano Pope,Channelview,66.95,174.63,102.06,204.12,480.81,Single-ply,SBD,M
Boys,67.13,3,Tyler Dawson,Livingston,65.18,183.7,108.86,176.9,469.47,Single-ply,SBD,M
Boys,74.84,4,Zach Hawkins,Conroe The Woodlands,67.18,156.49,136.08,172.37,464.93,Single-ply,SBD,M
Boys,74.84,5,Joan Catalan,Tomball,67.31,158.76,86.18,161.03,405.97,Single-ply,SBD,M
Boys,67.13,6,Bobby Baker,Magnolia,67.13,136.08,81.65,147.42,365.14,Single-ply,SBD,M
Boys,67.13,7,Charlie Reyes,Tomball,63.91,133.81,74.84,149.69,358.34,Single-ply,SBD,M
Boys,67.13,8,Gage Blue,Conroe The Woodlands,66.77,117.93,86.18,145.15,349.27,Single-ply,SBD,M
Boys,67.13,DQ,Cameron Nava,Magnolia,64.05,142.88,,,,Single-ply,SBD,M
Boys,74.84,1,Grant Fults,Livingston,72.21,206.38,142.88,206.38,555.65,Single-ply,SBD,M
Boys,82.1,2,Kevin Agostinho,Katy Taylor,75.02,195.04,120.2,206.38,521.63,Single-ply,SBD,M
Boys,74.84,3,Eric Preuss,Montgomery,71.99,188.24,113.4,215.46,517.1,Single-ply,SBD,M
Boys,74.84,4,Noah Fletcher,Conroe Woodlands College Park,74.16,190.51,115.67,183.7,489.88,Single-ply,SBD,M
Boys,74.84,5,Dylan Jenkins,Montgomery,72.3,183.7,102.06,192.78,478.54,Single-ply,SBD,M
Boys,74.84,6,Dawson Nobriga,Channelview,70.53,181.44,102.06,170.1,453.59,Single-ply,SBD,M
Boys,74.84,7,Austin McDaniel,Magnolia,69.54,158.76,88.45,161.03,408.23,Single-ply,SBD,M
Boys,74.84,8,Tyrell Harris,Magnolia,70.81,147.42,99.79,161.03,408.23,Single-ply,SBD,M
Boys,74.84,9,Terry Walker,Huntsville,73.21,151.95,86.18,165.56,403.7,Single-ply,SBD,M
Boys,74.84,10,Gio St Cyr,Pasadena Rayburn,71.12,142.88,97.52,151.95,392.36,Single-ply,SBD,M
Boys,74.84,11,Rico Graves,Conroe,74.21,129.27,79.38,165.56,374.21,Single-ply,SBD,M
Boys,74.84,12,James Martin,Pasadena Rayburn,74.48,145.15,90.72,127.01,362.87,Single-ply,SBD,M
Boys,74.84,13,Alex Bultron,Tomball,71.12,129.27,74.84,149.69,353.8,Single-ply,SBD,M
Boys,74.84,14,Jack Rust,Conroe Woodlands College Park,70.81,108.86,68.04,140.61,317.51,Single-ply,SBD,M
Boys,74.84,15,Jordan Castro,Conroe The Woodlands,69.17,120.2,63.5,124.74,308.44,Single-ply,SBD,M
Boys,82.1,1,Darrian Dock,Conroe,77.43,226.8,129.27,197.31,553.38,Single-ply,SBD,M
Boys,82.1,2,Tony Tapia,Conroe Woodlands College Park,81.51,204.12,127.01,192.78,523.9,Single-ply,SBD,M
Boys,82.1,3,Kyle Brennan,Conroe The Woodlands,81.78,188.24,117.93,204.12,510.29,Single-ply,SBD,M
Boys,82.1,4,Anthony Chaney,Huntsville,79.56,192.78,113.4,195.04,501.22,Single-ply,SBD,M
Boys,82.1,5,Jacob Gallatin,Montgomery,76.25,190.51,115.67,190.51,496.68,Single-ply,SBD,M
Boys,82.1,6,Nick Beazley,Montgomery,80.15,190.51,124.74,181.44,496.68,Single-ply,SBD,M
Boys,82.1,7,Walker Holverson,Tomball,79.11,174.63,97.52,201.85,474,Single-ply,SBD,M
Boys,82.1,8,Hayden Willis,Magnolia,79.92,174.63,92.99,181.44,449.06,Single-ply,SBD,M
Boys,82.1,9,Josh Kiser,Conroe The Woodlands,79.74,145.15,102.06,185.97,433.18,Single-ply,SBD,M
Boys,82.1,10,Brant Jensen,Montgomery,79.51,142.88,106.59,176.9,426.38,Single-ply,SBD,M
Boys,82.1,11,Cody Hamilton,Katy Taylor,77.52,158.76,90.72,145.15,394.63,Single-ply,SBD,M
Boys,82.1,12,Dregston Terry,Huntsville,80.83,147.42,79.38,158.76,385.55,Single-ply,SBD,M
Boys,82.1,13,Connor Conkle,Montgomery,79.15,156.49,83.91,142.88,383.29,Single-ply,SBD,M
Boys,82.1,14,Garrett Jackson,Conroe,75.93,136.08,95.25,145.15,376.48,Single-ply,SBD,M
Boys,82.1,15,Richard Fancher,Montgomery,76.29,122.47,68.04,158.76,349.27,Single-ply,SBD,M
Boys,82.1,16,Travis Brundrett,Conroe Woodlands College Park,76.52,127.01,86.18,136.08,349.27,Single-ply,SBD,M
Boys,82.1,17,Grant Mountain,Conroe The Woodlands,77.75,122.47,72.57,149.69,344.73,Single-ply,SBD,M
Boys,89.81,1,David Caddie,Livingston,86.86,235.87,138.35,265.35,639.57,Single-ply,SBD,M
Boys,89.81,2,Jalen Hurts,Channelview,89.18,254.01,127.01,258.55,639.57,Single-ply,SBD,M
Boys,89.81,3,Dustin Baranowski,Conroe The Woodlands,89.63,201.85,127.01,226.8,555.65,Single-ply,SBD,M
Boys,89.81,4,Ali Jumili,Conroe The Woodlands,87.27,183.7,115.67,199.58,498.95,Single-ply,SBD,M
Boys,99.79,5,Steven Largent,Huntsville,90.04,181.44,106.59,204.12,492.15,Single-ply,SBD,M
Boys,89.81,6,Anthony Garzoria,Channelview,89.54,192.78,113.4,183.7,489.88,Single-ply,SBD,M
Boys,89.81,7,Parker Coleman,Conroe The Woodlands,88.59,170.1,120.2,190.51,480.81,Single-ply,SBD,M
Boys,89.81,8,Nick Tucci,Katy Taylor,87.5,185.97,92.99,192.78,471.74,Single-ply,SBD,M
Boys,89.81,9,Cortland Brown,Conroe The Woodlands,85.18,172.37,99.79,181.44,453.59,Single-ply,SBD,M
Boys,89.81,10,Jay Palacios,Tomball,85.09,165.56,106.59,151.95,424.11,Single-ply,SBD,M
Boys,89.81,11,Jeff Golze,Conroe The Woodlands,88.36,149.69,88.45,154.22,392.36,Single-ply,SBD,M
Boys,109.77,1,Dustin Castleberry,Montgomery,99.97,254.01,181.44,219.99,655.44,Single-ply,SBD,M
Boys,99.79,2,Germain Zuiga,Pasadena Rayburn,98.79,226.8,167.83,233.6,628.23,Single-ply,SBD,M
Boys,99.79,3,Deveon Jefferson,Livingston,93.03,251.74,158.76,206.38,616.89,Single-ply,SBD,M
Boys,99.79,4,Rene Troche-Baez,Conroe The Woodlands,97.66,231.33,122.47,258.55,612.35,Single-ply,SBD,M
Boys,99.79,5,Kyle Haynes,Livingston,97.16,242.67,129.27,219.99,591.94,Single-ply,SBD,M
Boys,99.79,6,Ty Evans,Montgomery,97.48,215.46,129.27,226.8,571.53,Single-ply,SBD,M
Boys,99.79,7,Justin Pechacek,Montgomery,91.76,219.99,145.15,201.85,566.99,Single-ply,SBD,M
Boys,99.79,8,Zach Loane,Conroe The Woodlands,94.85,206.38,108.86,242.67,557.92,Single-ply,SBD,M
Boys,99.79,9,Hector Garcia,Conroe Woodlands College Park,99.47,208.65,117.93,215.46,542.04,Single-ply,SBD,M
Boys,99.79,10,John Sweeten,Montgomery,91.53,206.38,129.27,204.12,539.77,Single-ply,SBD,M
Boys,99.79,11,Hunter Madore,Conroe The Woodlands,96.48,183.7,136.08,217.72,537.51,Single-ply,SBD,M
Boys,99.79,12,Carson Gillaspia,Katy Taylor,95.03,204.12,136.08,192.78,532.97,Single-ply,SBD,M
Boys,99.79,13,Uri Lujan,Conroe,96.66,213.19,117.93,192.78,523.9,Single-ply,SBD,M
Boys,99.79,14,John Love,Conroe Woodlands College Park,95.62,201.85,106.59,204.12,512.56,Single-ply,SBD,M
Boys,99.79,15,Gil Bernal,Channelview,90.95,204.12,113.4,188.24,505.76,Single-ply,SBD,M
Boys,99.79,16,Hunter Grimmett,Montgomery,97.25,183.7,124.74,197.31,505.76,Single-ply,SBD,M
Boys,99.79,17,Martin Muniz,Pasadena Rayburn,91.17,176.9,104.33,199.58,480.81,Single-ply,SBD,M
Boys,99.79,18,Andrew Smith #13,Conroe The Woodlands,96.03,170.1,108.86,201.85,480.81,Single-ply,SBD,M
Boys,99.79,19,Brad Martin,Montgomery,99.02,190.51,117.93,172.37,480.81,Single-ply,SBD,M
Boys,99.79,20,Malcolm Hodges,Montgomery,98.38,183.7,113.4,174.63,471.74,Single-ply,SBD,M
Boys,99.79,21,Caleb Deihl,Tomball,99.47,163.29,113.4,195.04,471.74,Single-ply,SBD,M
Boys,99.79,22,Parker Moon,Katy Taylor,98.61,183.7,124.74,158.76,467.2,Single-ply,SBD,M
Boys,99.79,23,David Magalee,Conroe Woodlands College Park,94.76,204.12,111.13,142.88,458.13,Single-ply,SBD,M
Boys,99.79,24,Logan Bonner,Montgomery,99.06,165.56,113.4,158.76,437.72,Single-ply,SBD,M
Boys,99.79,25,Desmond Doakes,Tomball,91.94,161.03,72.57,170.1,403.7,Single-ply,SBD,M
Boys,99.79,26,Cale Garrison,Conroe The Woodlands,94.85,165.56,83.91,149.69,399.16,Single-ply,SBD,M
Boys,109.77,1,Dj Jefferson,Conroe,109.77,238.14,147.42,210.92,596.47,Single-ply,SBD,M
Boys,109.77,2,Cory Stang,Magnolia,107.27,226.8,133.81,217.72,578.33,Single-ply,SBD,M
Boys,109.77,3,Vaughn Taylor,Conroe,109.09,219.99,115.67,226.8,562.45,Single-ply,SBD,M
Boys,109.77,4,Rodney Rodriguez,Katy Taylor,104.64,226.8,129.27,199.58,555.65,Single-ply,SBD,M
Boys,109.77,5,Yahir Vargas,Tomball,106.82,215.46,136.08,195.04,546.58,Single-ply,SBD,M
Boys,109.77,6,Otito Ogbonnia,Katy Taylor,106.05,183.7,104.33,190.51,478.54,Single-ply,SBD,M
Boys,109.77,7,Cameron Putska,Montgomery,103.65,190.51,106.59,176.9,474,Single-ply,SBD,M
Boys,109.77,8,Max Joiner,Conroe,108.36,190.51,120.2,163.29,474,Single-ply,SBD,M
Boys,109.77,9,Chris Orr,Montgomery,104.14,185.97,97.52,185.97,469.47,Single-ply,SBD,M
Boys,109.77,10,Kallen Miller,Montgomery,104.19,170.1,104.33,176.9,451.32,Single-ply,SBD,M
Boys,109.77,11,Rudy Wilkins,Katy Taylor,108.14,142.88,77.11,165.56,385.55,Single-ply,SBD,M
Boys,109.77,12,Jonathan Burton,Huntsville,103.37,142.88,74.84,142.88,360.61,Single-ply,SBD,M
Boys,124.74,1,Nathaniel Flores,Pasadena Dobie,115.98,251.74,170.1,226.8,648.64,Single-ply,SBD,M
Boys,124.74,2,Dawson Smith,Huntsville,120.75,242.67,156.49,217.72,616.89,Single-ply,SBD,M
Boys,124.74,3,Sam Grubbs,Conroe Woodlands College Park,116.98,244.94,138.35,213.19,596.47,Single-ply,SBD,M
Boys,124.74,4,Adrian Perez,Conroe,124.38,238.14,124.74,213.19,576.06,Single-ply,SBD,M
Boys,124.74,5,Ethan Trammel,Huntsville,121.7,238.14,138.35,197.31,573.79,Single-ply,SBD,M
Boys,124.74,6,Aaron Hopper,Conroe The Woodlands,117.48,199.58,136.08,204.12,539.77,Single-ply,SBD,M
Boys,124.74,7,Cobin Estorffe,Katy Taylor,119.29,206.38,115.67,199.58,521.63,Single-ply,SBD,M
Boys,124.74,8,Jose Barrios,Tomball,115.71,185.97,115.67,210.92,512.56,Single-ply,SBD,M
Boys,124.74,9,Justin Deek,Magnolia,122.97,192.78,122.47,163.29,478.54,Single-ply,SBD,M
Boys,124.74,10,Quentin Edmiston,Montgomery,118.21,174.63,113.4,176.9,464.93,Single-ply,SBD,M
Boys,124.74,DQ,Brendan Fox,Montgomery,122.65,215.46,149.69,,,Single-ply,SBD,M
Boys,124.74,DQ,Darius Lloyd,Conroe,123.42,240.4,113.4,,,Single-ply,SBD,M
Boys,124.74+,1,TJ Anderson,Conroe,126.42,285.76,140.61,231.33,657.71,Single-ply,SBD,M
Boys,124.74+,2,Onterial Carter,Livingston,157.4,244.94,142.88,260.82,648.64,Single-ply,SBD,M
Boys,124.74+,3,Alex Hernandez,Pasadena Rayburn,130.18,272.16,115.67,226.8,614.62,Single-ply,SBD,M
Boys,124.74+,4,Jordan Johnson,Livingston,127.14,233.6,165.56,197.31,596.47,Single-ply,SBD,M
Boys,124.74+,5,Jamie Beaton,Conroe,128.14,249.48,113.4,204.12,566.99,Single-ply,SBD,M
Boys,124.74+,6,Nathaniel Grant,Conroe Woodlands College Park,148.05,222.26,120.2,208.65,551.11,Single-ply,SBD,M
Boys,124.74+,7,Joseph Sols,Magnolia,135.58,204.12,122.47,213.19,539.77,Single-ply,SBD,M
Boys,124.74+,8,Chuck Warren,Tomball,128.64,181.44,127.01,217.72,526.17,Single-ply,SBD,M
Boys,124.74+,9,Michael Davis #8,Huntsville,140.39,161.03,,,161.03,Single-ply,S,M
Boys,124.74+,DQ,Chris Rogers,Katy Taylor,136.98,,,,,Single-ply,S,M
Boys,124.74+,DQ,Brandon Jones,Montgomery,139.93,,,,,Single-ply,S,M
