Place,Name,BirthYear,WeightClassKg,BodyweightKg,Country,Squat1Kg,Squat2Kg,Squat3Kg,Best3SquatKg,Bench1Kg,Bench2Kg,Bench3Kg,Best3BenchKg,Deadlift1Kg,Deadlift2Kg,Deadlift3Kg,Best3DeadliftKg,TotalKg,Sex,Event,Equipment,Division
1,Andrzej Stanaszek,1971,52,50,Poland,195,-240,240,240,150,163,,163,120,130,140,140,542.5,M,SBD,Raw,Open
2,Laurent Bach,1968,52,51.6,France,135,150,-155,150,92.5,100,-105,100,180,-205,-205,180,430,M,SBD,Single-ply,Open
1,Gary Simes,1963,56,55.8,UK,215,220,-225,220,-115,-117.5,122.5,122.5,210,215,217.5,217.5,560,M,SBD,Single-ply,Open
2,Magnus Carlsson,1967,56,55.9,Sweden,227.5,250.5,-255,250.5,162.5,170,-172.5,170,132.5,-137.5,-140,132.5,552.5,M,SBD,Single-ply,Open
3,Klemen Jaschinski,1963,56,55.7,Germany,190,-200,200,200,130,137.5,-140,137.5,-195,-202.5,207.5,207.5,545,M,SBD,Single-ply,Open
4,Joachim Mödl,1966,56,55.8,Germany,200,-212.5,212.5,212.5,110,-117.5,-117.5,110,200,-212.5,-220,200,522.5,M,SBD,Single-ply,Open
5,Jürgen Nemeth,1972,56,55.7,Austria,182.5,-187.5,190,190,100,107.5,-110,107.5,210,220,-225,220,517.5,M,SBD,Single-ply,Open
6,Jan-Erik Christiansen,1968,56,56,Norway,185,-192.5,-192.5,185,125,130,135,135,185,-197.5,-200,185,505,M,SBD,Single-ply,Open
7,Thierry Brunat,1967,56,55.7,France,165,175,-180,175,102.5,-105,105,105,205,-215,-225,205,485,M,SBD,Single-ply,Open
8,Pavel Malina,1960,56,55.4,Czechia,160,170,177.5,177.5,95,100,105,105,160,170,-175,170,452.5,M,SBD,Single-ply,Open
9,Josef Nemeth,1958,56,55.8,Hungary,-145,145,-160,145,95,100,-102.5,100,160,165,-170,165,410,M,SBD,Single-ply,Open
1,Gerard McNamara #1,1963,60,59.9,Ireland,225,232.5,240,240,145,150,155,155,255,260,-265,260,655,M,SBD,Single-ply,Open
2,Asko Sirviö,1968,60,60,Finland,210,217.5,-222.5,217.5,135,140,142.5,142.5,210,217.5,-240,217.5,577.5,M,SBD,Single-ply,Open
3,Ronny Celis,1965,60,59.6,Belgium,200,210,-212.5,210,122.5,-127.5,-127.5,122.5,230,-235,-237.5,230,562.5,M,SBD,Single-ply,Open
4,Anton Mihok,1957,60,60,Slovakia,195,210,-217.5,210,115,-122.5,122.5,122.5,225,-237.5,-237.5,225,557.5,M,SBD,Single-ply,Open
5,Ari Oksanen,1964,60,60,Finland,-182.5,182.5,-187.5,182.5,130,-135,,130,210,-215,-215,210,522.5,M,SBD,Single-ply,Open
6,Philip Doyle,1966,60,60,Ireland,-180,180,-182.5,180,115,-122.5,122.5,122.5,190,205,-212.5,205,507.5,M,SBD,Single-ply,Open
7,Sebast Mangiameli,1967,60,59.6,Italy,180,200,210,210,82.5,90,95,95,180,200,-210,200,505,M,SBD,Single-ply,Open
1,Rodney Hypolite,1969,67.5,66.8,UK,245,255,262.5,262.5,135,142.5,-145,142.5,270,282.5,-295,282.5,687.5,M,SBD,Single-ply,Open
2,Jan Wilczyński,1955,67.5,67.4,Poland,245,-250,250,250,142.5,150,-152.5,150,270,-280,-290,270,670,M,SBD,Single-ply,Open
3,Josef Trnka,1959,67.5,66.7,Slovakia,235,247.5,255,255,125,130,132.5,132.5,-245,245,257.5,257.5,645,M,SBD,Single-ply,Open
4,Jussi Huhtanen,1968,67.5,67.3,Finland,242.5,-252.5,252.5,252.5,120,125,127.5,127.5,255,260,-267.5,260,640,M,SBD,Single-ply,Open
5,Lars Eriksson,1960,67.5,67.5,Sweden,210,222.5,-227.5,222.5,130,140,142.5,142.5,230,240,255,255,620,M,SBD,Single-ply,Open
6,Sakari Selkäinaho,1962,67.5,67.1,Finland,210,225,232.5,232.5,-150,150,-165,150,220,235,-245,235,617.5,M,SBD,Single-ply,Open
7,Alessand Favorito,1965,67.5,66.9,Italy,-205,205,220,220,-115,115,125,125,220,240,-245,240,585,M,SBD,Single-ply,Open
8,Marcel Swalus,1958,67.5,66.8,Belgium,220,235,-242.5,235,107.5,115,-117.5,115,220,-230,-230,220,570,M,SBD,Single-ply,Open
9,Dainius Juodgudis,1971,67.5,67.4,Lithuania,-200,200,-215,200,125,132.5,137.5,137.5,220,-230,-230,220,557.5,M,SBD,Single-ply,Open
10,Gintautus Buitkus,1965,67.5,67.5,Lithuania,-190,200,205,205,115,-130,-130,115,210,220,-230,220,540,M,SBD,Single-ply,Open
1,Sirazhiti Bazayev,1968,75,72.1,Ukraine,260,-272.5,272.5,272.5,162.5,-167.5,-167.5,162.5,260,275,285,285,720,M,SBD,Single-ply,Open
2,Pekka Anttila,1965,75,74.6,Finland,,,,280,,,,160,,,,280,720,M,SBD,Single-ply,Open
3,Per Berglund,1967,75,72,Sweden,245,265,-272.5,265,170,175,-180,175,235,255,260,260,700,M,SBD,Single-ply,Open
4,Ari Virtanen,1965,75,74.9,Finland,-260,260,-267.5,260,157.5,162.5,165,165,275,-290,-290,275,700,M,SBD,Single-ply,Open
5,Philippe Hoareau,1968,75,74.7,France,260,270,275,275,145,152.5,155,155,240,250,260,260,690,M,SBD,Single-ply,Open
6,Kader Baali,1968,75,74.3,France,250,262.5,267.5,267.5,162.5,170,-175,170,250,-270,-270,250,687.5,M,SBD,Single-ply,Open
7,Sigve Valentinsen,1960,75,74.9,Norway,-255,-260,260,260,-155,155,-160,155,265,-277.5,-277.5,265,680,M,SBD,Single-ply,Open
8,Stanislav Hoza,1956,75,75,Czechia,250,270,280,280,150,157.5,-160,157.5,240,-250,-250,240,677.5,M,SBD,Single-ply,Open
9,Michael Schmitt,1963,75,74.5,Germany,225,240,245,245,167.5,175,-180,175,240,250,255,255,675,M,SBD,Single-ply,Open
10,Jan Theys,1963,75,72.4,Belgium,240,-255,-255,240,165,170,172.5,172.5,250,-260,260,260,672.5,M,SBD,Single-ply,Open
11,Giancarlo Zerbini,1965,75,74.4,Italy,225,-240,240,240,-130,137.5,145,145,255,-270,-270,255,640,M,SBD,Single-ply,Open
12,Ab Bruggink,1961,75,74.7,Netherlands,215,227.5,230,230,-140,140,147.5,147.5,240,257.5,-265,257.5,635,M,SBD,Single-ply,Open
13,Alfio Fuccio,1969,75,73.6,Italy,200,225,240,240,110,125,-132.5,125,220,235,250,250,615,M,SBD,Single-ply,Open
14,Zdeněk Fanta,1954,75,74.4,Czechia,220,230,-240,230,120,-130,130,130,230,250,-257.5,250,610,M,SBD,Single-ply,Open
DD,Kári Elíson,1953,75,73.7,Iceland,240,-247.5,247.5,247.5,177.5,182.5,,182.5,-262.5,280,-285,280,,M,SBD,Single-ply,Open
1,David Carter #2,1963,82.5,81.4,UK,275,290,-295,290,175,177.5,-180,177.5,312.5,327.5,332.5,332.5,800,M,SBD,Single-ply,Open
2,Petr Theuser,1961,82.5,81.7,Czechia,280,300,305,305,175,182.5,185,185,280,295,-307.5,295,785,M,SBD,Single-ply,Open
3,Hannu Malinen,1955,82.5,82.2,Finland,260,-270,270,270,175,-180,-180,175,-320,320,-342.5,320,765,M,SBD,Single-ply,Open
4,Jurij Ivanushin,1962,82.5,80.7,Latvia,250,260,270,270,160,167.5,-172.5,167.5,300,310,-315,310,747.5,M,SBD,Single-ply,Open
5,Michael Pehle,1960,82.5,82.2,Germany,270,277.5,285,285,180,190,195,195,265,-272.5,-275,265,745,M,SBD,Single-ply,Open
6,Dirk Surma,1967,82.5,82.4,Germany,280,290,295,295,182.5,-190,190,190,255,-262.5,-262.5,255,740,M,SBD,Single-ply,Open
7,Didier Hennequin,1958,82.5,81.7,France,275,285,295,295,155,160,-165,160,270,-285,-285,270,725,M,SBD,Single-ply,Open
8,Gerr VanHanswijck,1964,82.5,81.1,Belgium,275,-285,-285,275,165,-170,-170,165,270,-280,-280,270,710,M,SBD,Single-ply,Open
9,Roberto Bettati,1964,82.5,81.6,Italy,280,290,-295,290,135,-145,145,145,265,275,-280,275,710,M,SBD,Single-ply,Open
10,Rene Vokroj,1965,82.5,81.9,Austria,240,255,260,260,145,157.5,-162.5,157.5,270,275,-280,275,692.5,M,SBD,Single-ply,Open
11,Stefano Bettati,1968,82.5,81.5,Italy,265,280,-290,280,105,115,-125,115,270,-285,-285,270,665,M,SBD,Single-ply,Open
DQ,Roman Szymkowiak,1959,82.5,82.3,Poland,-285,-285,-285,,,,,,,,,,,M,SBD,Single-ply,Open
DD,Lew Albin,1960,82.5,82.5,Ukraine,-302.5,302.5,-307.5,302.5,192.5,200,-205,200,-292.5,292.5,297.5,297.5,,M,SBD,Single-ply,Open
1,Frank Schramm,1963,90,89.5,Germany,330,350,362.5,362.5,-210,220,-235,220,280,295,-312.5,295,877.5,M,SBD,Single-ply,Open
2,Damiano Crocitto,1969,90,89.2,Italy,315,325,330,330,185,-192.5,-192.5,185,325,-340,-377.5,325,840,M,SBD,Single-ply,Open
3,Wolodimi Uchatsch,1960,90,88.8,Ukraine,-300,300,310,310,207.5,217.5,-222.5,217.5,280,290,-295,290,817.5,M,SBD,Single-ply,Open
4,Ca Christoffersen,1968,90,89,Norway,300,310,315,315,192.5,200,-205,200,290,-295,-295,290,805,M,SBD,Single-ply,Open
5,Sakari Mäntylä,1954,90,89.4,Finland,300,-315,-315,300,160,-170,-170,160,290,-300,-300,290,750,M,SBD,Single-ply,Open
6,Dominique Desachy,1965,90,89.3,France,260,275,-280,275,170,180,185,185,265,-275,-275,265,725,M,SBD,Single-ply,Open
7,Philippe Ducamin,1959,90,82.7,France,-260,-260,260,260,155,160,-162.5,160,260,-272.5,-272.5,260,680,M,SBD,Single-ply,Open
DQ,Chidi Okeke,1959,90,86.7,UK,,,,,,,,,,,,,,M,SBD,Single-ply,Open
DQ,Genadij Vorobjow,1961,90,88.4,Ukraine,305,-315,-315,305,-197.5,-197.5,-197.5,,,,,,,M,SBD,Single-ply,Open
1,Børge Øvrebø,1960,100,100,Norway,305,320,330,330,210,220,-222.5,220,300,315,320,320,870,M,SBD,Single-ply,Open
2,Ulrich Rambow,1963,100,99.1,Germany,320,335,342.5,342.5,190,197.5,200,200,300,312.5,315,315,857.5,M,SBD,Single-ply,Open
3,Arto Rajala,1955,100,99.5,Finland,320,-335,335,335,190,-200,200,200,302.5,-315,315,315,850,M,SBD,Single-ply,Open
4,Hugo de Grauwe,1954,100,99.4,Belgium,320,335,,335,-190,190,-197.5,190,300,-312.5,312.5,312.5,837.5,M,SBD,Single-ply,Open
5,Anton Tucek,1956,100,99.4,Austria,315,330,335,335,180,187.5,-190,187.5,295,305,-315,305,827.5,M,SBD,Single-ply,Open
6,Bernhard Klaut,1966,100,99.5,Austria,300,-310,-310,300,-200,200,205,205,290,310,-327.5,310,815,M,SBD,Single-ply,Open
7,Milan Gabrhel,1958,100,99.5,Slovakia,300,317.5,-332.5,317.5,200,207.5,212.5,212.5,280,-295,-305,280,810,M,SBD,Single-ply,Open
8,Clive Henry,1966,100,99.2,UK,305,320,-330,320,180,187.5,190,190,295,-300,-300,295,805,M,SBD,Single-ply,Open
9,Jörgen Ljungberg,1967,100,98.2,Sweden,-295,-295,295,295,180,187.5,192.5,192.5,290,295,307.5,307.5,795,M,SBD,Single-ply,Open
10,Andrew Rodney,1965,100,96.3,UK,307.5,322.5,332.5,332.5,167.5,170,-172.5,170,290,-302.5,-302.5,290,792.5,M,SBD,Single-ply,Open
11,Viktor Gantschur,1958,100,91.3,Ukraine,-300,300,-305,300,180,190,-192.5,190,290,-310,-310,290,780,M,SBD,Single-ply,Open
12,Jan Seghers,1966,100,92.8,Belgium,265,272.5,282.5,282.5,167.5,172.5,-175,172.5,320,-332.5,-332.5,320,775,M,SBD,Single-ply,Open
13,Mohammed Siabdallah,1966,100,96.1,France,310,-330,-330,310,180,-185,185,185,260,280,-287.5,280,775,M,SBD,Single-ply,Open
14,Nikola Pavilovski,1955,100,95.5,Latvia,255,270,275,275,165,172.5,-175,172.5,300,322.5,-327.5,322.5,770,M,SBD,Single-ply,Open
15,Raimon Linkautkas,1962,100,94.6,Lithuania,245,-255,260,260,200,-207.5,-207.5,200,275,300,-317.5,300,760,M,SBD,Single-ply,Open
16,Charlie Heming,1964,100,96.2,Netherlands,245,262.5,270,270,150,155,-157.5,155,270,300,307.5,307.5,732.5,M,SBD,Single-ply,Open
1,Ano Turtainen,1967,110,108.2,Finland,330,-340,340,340,190,197.5,-200,197.5,320,335,-340,335,872.5,M,SBD,Single-ply,Open
2,Piebe Faber,1962,110,109.4,Netherlands,295,312.5,320,320,215,225,230,230,285,295,300,300,850,M,SBD,Single-ply,Open
3,Franz Siller,1963,110,107.5,Austria,300,315,-320,315,192.5,-200,-200,192.5,290,307.5,-312.5,307.5,815,M,SBD,Single-ply,Open
4,Paul Reynolds,1966,110,102,UK,-305,305,-320,305,162.5,167.5,-170,167.5,305,315,-342.5,315,787.5,M,SBD,Single-ply,Open
DQ,Edmund Ims,1956,110,109.7,Belgium,310,325,332.5,332.5,165,175,180,180,-302.5,-302.5,-305,,,M,SBD,Single-ply,Open
DQ,Audrius Vosilius,1964,110,100.7,Lithuania,-245,-245,,,,,,,,,,,,M,SBD,Single-ply,Open
DQ,Hans Derynck,1956,110,108.8,Belgium,-310,-310,-310,,,,,,,,,,,M,SBD,Single-ply,Open
1,Viktor Naleykin,1953,125,123.3,Ukraine,-380,380,-390,380,200,210,217.5,217.5,350,-360,362.5,362.5,960,M,SBD,Single-ply,Open
2,Detlef Glohmann,1954,125,124.6,Germany,360,-380,-380,360,210,220,230,230,330,350,-360,350,940,M,SBD,Single-ply,Open
3,Leopold Krendl,1957,125,121.2,Austria,360,385,-400,385,190,197.5,202.5,202.5,315,340,345,345,932.5,M,SBD,Single-ply,Open
4,Guðni Sigurjónsson,1963,125,116.6,Iceland,340,355,-362.5,355,210,-215,217.5,217.5,335,355,-367.5,355,927.5,M,SBD,Single-ply,Open
5,Søren Oldenborg,1955,125,123.5,Denmark,320,-340,-340,320,235,245,-252.5,245,310,320,325,325,890,M,SBD,Single-ply,Open
6,Eberhard Schwanke,1953,125,121.1,Germany,315,330,340,340,220,240,247.5,247.5,295,-310,-312.5,295,882.5,M,SBD,Single-ply,Open
7,Hans A. Kalleberg,1961,125,119.8,Norway,320,335,345,345,177.5,-185,185,185,290,-300,-300,290,820,M,SBD,Single-ply,Open
DQ,Jiří Ondráček,1955,125,120.4,Czechia,250,-270,-270,250,,,,235,,,,,,M,SBD,Single-ply,Open
1,Hans Zerhoch,1950,125+,142.2,Germany,390,410,420,420,200,-215,215,215,330,-345,-345,330,965,M,SBD,Single-ply,Open
2,Ralf Gierz,1966,125+,137.6,Germany,-360,360,-380,360,230,240,247.5,247.5,330,345,-350,345,952.5,M,SBD,Single-ply,Open
3,Karl Saliger,1969,125+,135.6,Austria,370,-385,-385,370,235,242.5,247.5,247.5,315,330,-337.5,330,947.5,M,SBD,Single-ply,Open
4,Miroslav Patro,1957,125+,141.1,Slovakia,375,390,-400,390,200,207.5,-212.5,207.5,342.5,-357.5,-357.5,342.5,940,M,SBD,Single-ply,Open
5,Evgeni Popov,1955,125+,155,Bulgaria,-340,-340,340,340,205,-215,215,215,340,-350,350,350,905,M,SBD,Single-ply,Open
6,Roger Sandström,1960,125+,168.3,Sweden,345,-365,-365,345,-220,220,-235,220,310,332.5,-342.5,332.5,897.5,M,SBD,Single-ply,Open
7,Corry van Jansen Jorksveld,1960,125+,132.7,Netherlands,340,-360,-360,340,220,-230,-230,220,315,-325,-337.5,315,875,M,SBD,Single-ply,Open
DQ,Jurij Spinow,1962,125+,130.3,Ukraine,-380,-380,380,380,-170,170,-177.5,170,-360,-360,-360,,,M,SBD,Single-ply,Open
